{
  "unpublishedPage": {
    "name": "Page1",
    "slug": "page1",
    "layouts": [
      {
        "viewMode": false,
        "dsl": {
          "widgetName": "MainContainer",
          "backgroundColor": "none",
          "rightColumn": 4896,
          "snapColumns": 64,
          "detachFromLayout": true,
          "widgetId": "0",
          "topRow": 0,
          "bottomRow": 5000,
          "containerStyle": "none",
          "snapRows": 125,
          "parentRowSpace": 1,
          "type": "CANVAS_WIDGET",
          "canExtend": true,
          "version": 59,
          "minHeight": 1292,
          "dynamicTriggerPathList": [],
          "parentColumnSpace": 1,
          "dynamicBindingPathList": [],
          "leftColumn": 0,
          "children": [
            {
              "boxShadow": "none",
              "widgetName": "Button1",
              "buttonColor": "{{appsmith.theme.colors.primaryColor}}",
              "displayName": "Button",
              "iconSVG": "/static/media/icon.cca02633.svg",
              "searchTags": [
                "click",
                "submit"
              ],
              "topRow": 20,
              "bottomRow": 24,
              "parentRowSpace": 10,
              "type": "BUTTON_WIDGET",
              "hideCard": false,
              "animateLoading": true,
              "parentColumnSpace": 20.0625,
              "leftColumn": 0,
              "dynamicBindingPathList": [
                {
                  "key": "buttonColor"
                },
                {
                  "key": "borderRadius"
                }
              ],
              "text": "Submit",
              "isDisabled": false,
              "key": "yjk4bhzqq0",
              "isDeprecated": false,
              "rightColumn": 16,
              "isDefaultClickDisabled": true,
              "widgetId": "d0zsls3o5s",
              "isVisible": true,
              "recaptchaType": "V3",
              "version": 1,
              "parentId": "0",
              "renderMode": "CANVAS",
              "isLoading": false,
              "borderRadius": "{{appsmith.theme.borderRadius.appBorderRadius}}",
              "buttonVariant": "PRIMARY",
              "placement": "CENTER"
            }
          ]
        },
        "layoutOnLoadActions": [],
        "validOnPageLoadActions": true,
        "id": "Page1",
        "deleted": false,
        "policies": [],
        "userPermissions": []
      }
    ],
    "userPermissions": [],
    "policies": []
  },
  "deleted": false,
  "gitSyncId": "62b0a7a39362d318f902e8bf_62b0a7a39362d318f902e8c1"
}